{
  "identifier": "dev.dec0dOS.fast_editor",
  "name": "Fast Editor",
  "content_type": "SN|Component",
  "area": "editor-editor",
  "version": "4.0.2",
  "description": "A plain text editor with improved mobile support and performance",
  "url": "https://ipfs.io/ipfs/SED_REPLACE_URL",
  "download_url": "https://ipfs.io/ipfs/SED_REPLACE_URL2",
  "latest_url": "https://raw.codeberg.page/video-prize-ranch/standard-notes-ipfs/@pages/fast-editor/ext.json",
  "marketing_url": "https://github.com/dec0dOS/standard-notes-fast-editor"
}