{
  "identifier": "org.codeberg.video-prize-ranch.standard-notes-ipfs.markdown-pro",
  "name": "Markdown Pro",
  "content_type": "SN|Component",
  "area": "editor-editor",
  "version": "1.5.0",
  "url": "https://ipfs.io/ipfs/SED_REPLACE_URL/dist/",
  "latest_url": "https://raw.codeberg.page/video-prize-ranch/standard-notes-ipfs/@pages/markdown-pro/ext.json",
  "download_url": "https://ipfs.io/ipfs/SED_REPLACE_URL2"
}